rechenkompetenzen_diagnostik – Übungsheft
…
# Fragebogenantworten und Datensatz mergen
dat <- dplyr::bind_cols(
  person = 1:N,
  geschlecht = geschlecht,
  alter = alter,
  U
  )

# Oberste zehn Zeilen des Datensatzes anzeigen
dat <- dplyr::as_tibble(dat)
print(dat)

# A tibble: 1,000 × 6
   person geschlecht alter    item_1 item_2 item_3
    <int> <chr>      <chr>     <dbl>  <dbl>  <dbl>
 1      1 mann       [35, 45)      4      3      4
 2      2 mann       [45, 55)      4      5      5
 3      3 frau       [25, 35)      4      4      3
 4      4 frau       [45, 55)      2      1      1
 5      5 mann       [35, 45)      4      5      2
 6      6 mann       [25, 35)      3      2      2
 7      7 frau       [35, 45)      3      3      1
 8      8 mann       [55, 65)      3      5      4
 9      9 frau       [55, 65)      4      3      4
10     10 mann       [18, 25)      4      4      3
# ℹ 990 more rows
…
Erzeugen Sie eine neue Variable dat$score im Datensatz, indem Sie die Antworten auf die drei Items summieren.

Tipp

dat$score <- ...

Lösung

dat$score <- dat$item_1 + dat$item_2 + dat$item_3

Wenn wir nun den Datensatz anzeigen, ist die neue Variable score zu sehen:

print(dat)

# A tibble: 1,000 × 7
   person geschlecht alter    item_1 item_2 item_3 score
    <int> <chr>      <chr>     <dbl>  <dbl>  <dbl> <dbl>
 1      1 mann       [35, 45)      4      3      4    11
 2      2 mann       [45, 55)      4      5      5    14
 3      3 frau       [25, 35)      4      4      3    11
 4      4 frau       [45, 55)      2      1      1     4
 5      5 mann       [35, 45)      4      5      2    11
 6      6 mann       [25, 35)      3      2      2     7
 7      7 frau       [35, 45)      3      3      1     7
 8      8 mann       [55, 65)      3      5      4    12
 9      9 frau       [55, 65)      4      3      4    11
10     10 mann       [18, 25)      4      4      3    11
# ℹ 990 more rows
…
